﻿Time,Non-Fiction Books: (Worldwide),Fantasy Books: (Worldwide),Romance novel: (Worldwide),Science Fiction Books: (Worldwide),Mood_Non-Fiction,Mood_Fantasy,Mood_Romance,Mood_Science Fiction
2019-07-20T23:29:00+08:00,0,14,85,0,0.6858446196683105,0.6179204421951783,0.4592670641447371,0.021755843986055602
2019-07-20T23:30:00+08:00,0,29,86,0,0.5396261138003987,0.5958130572741523,0.4923079960352034,0.31370660331093614
2019-07-20T23:31:00+08:00,50,73,84,0,0.3384692116485904,0.6547172237745965,0.26100348644815596,0.30898266129493324
2019-07-20T23:32:00+08:00,0,29,87,0,0.39068832968871864,0.6107295218513122,0.4920986213754059,0.24069032280967254
2019-07-20T23:33:00+08:00,0,57,70,0,0.4701211878178605,0.823017996350641,0.43881467153252796,0.17316274236802484
2019-07-20T23:34:00+08:00,0,29,62,32,0.279315576583992,0.3323716495756214,0.640098926083591,0.414101629231663
2019-07-20T23:35:00+08:00,0,14,100,0,0.4313302102679237,0.7624971978592135,0.3880854975168949,0.2891368932289648
2019-07-20T23:36:00+08:00,0,29,65,32,0.643490475188938,0.5214799914662763,0.4250568004466005,0.20142839140906324
2019-07-20T23:37:00+08:00,0,0,80,0,0.7107418044535662,0.47579259961340714,0.44273095381887356,0.4391655986211164
2019-07-20T23:38:00+08:00,0,43,95,0,0.6835722397665962,0.39327753105155083,0.2711185066046129,0.0
2019-07-20T23:39:00+08:00,0,29,85,32,0.7463076541234165,0.3445666475019487,0.8690189927388607,0.23499538303389575
2019-07-20T23:40:00+08:00,0,14,59,32,0.7520510012841474,0.3170882137996015,0.20968803845551334,0.14113930996661883
2019-07-20T23:41:00+08:00,0,28,77,0,0.33881275990064486,0.7093133269297633,0.17032714103978674,0.12069216808309069
2019-07-20T23:42:00+08:00,0,29,65,32,0.7341759563681911,0.423066012462627,0.7396849919469318,0.2869751220646361
2019-07-20T23:43:00+08:00,0,57,82,0,0.3476300730549614,0.48567687076427185,0.5136466838724779,0.2715221507059602
2019-07-20T23:44:00+08:00,0,28,85,0,0.5186087091266336,0.4829035720023221,0.3508724351767269,0.35636679298822044
2019-07-20T23:45:00+08:00,0,43,92,0,0.4934274789986324,0.26463991158703065,0.7331754259799598,0.23070614352189506
2019-07-20T23:46:00+08:00,0,43,74,0,0.4656714996601479,0.28730479338507103,0.7830649537875555,0.33150616446305337
2019-07-20T23:47:00+08:00,0,28,99,32,0.49943181164181405,0.26610146347597596,0.7096136366663115,0.5805696524501209
2019-07-20T23:48:00+08:00,0,57,85,0,0.32224609974603036,0.06397278737510788,0.21557957418651064,0.1636566421867269
2019-07-20T23:49:00+08:00,0,85,81,0,0.8288949910872713,0.8004829222300549,0.7596470976253297,0.38545185372633095
2019-07-20T23:50:00+08:00,0,0,100,0,0.2061271684925746,0.8114355945854709,0.4535257744836778,0.30985685937211516
2019-07-20T23:51:00+08:00,0,0,62,64,0.7596836992798183,0.8560072254559038,0.6896477032424806,0.5900939002628864
2019-07-20T23:52:00+08:00,0,99,43,32,0.490026304879029,0.2912303700216968,0.5719125252870182,0.5208400251050636
2019-07-20T23:53:00+08:00,0,57,74,64,0.15661267575693474,0.7796108774496356,0.44617210163696586,0.19612843224756435
2019-07-20T23:54:00+08:00,0,29,82,0,0.7223945320177438,0.13662723260590215,0.5096628289473685,0.15476316290080527
2019-07-20T23:55:00+08:00,0,29,69,33,0.7837933923172357,0.737744011154796,0.6179512491844275,0.3865950437151519
2019-07-20T23:56:00+08:00,0,0,87,33,0.6800578570462059,0.8441199280803585,0.0,0.34126347211076175
2019-07-20T23:57:00+08:00,0,0,99,0,1.0,0.6621938869910192,1.0,0.30167846639606244
2019-07-20T23:58:00+08:00,0,15,57,33,0.4488960499622441,0.8490434377075035,0.8850598524771753,0.21704879835397106
2019-07-20T23:59:00+08:00,100,14,70,0,0.5383253147628708,0.14088658742651564,0.5513876536222511,0.252334453415539
2019-07-21T00:00:00+08:00,0,100,79,32,0.6903925831653832,0.2832655186446413,0.5886896066584355,0.2641647090893057
2019-07-21T00:01:00+08:00,0,43,96,0,0.5405988464901561,0.6345393788556587,0.6822892056193657,0.34595950499556255
2019-07-21T00:02:00+08:00,0,43,79,0,0.30559214454376193,0.4697244995750071,0.7655994355366488,0.3518752520198089
2019-07-21T00:03:00+08:00,0,29,78,0,0.3275546624741458,1.0,0.33567005281004614,0.20255314078024214
2019-07-21T00:04:00+08:00,0,29,82,33,0.7355649680107814,0.12075702899956343,0.5547537764023541,0.2064365777563897
2019-07-21T00:05:00+08:00,0,0,81,0,0.6457736484142301,0.0,0.6950265615547488,0.3125411926113664
2019-07-21T00:06:00+08:00,0,29,55,0,0.7091740678366031,0.4042194975581192,0.34801603618421034,0.5923231879214135
2019-07-21T00:07:00+08:00,0,15,100,33,0.569137236607969,0.42448118718560734,0.1421937105948463,0.39093712177346274
2019-07-21T00:08:00+08:00,0,29,84,0,0.6994654843766747,0.4871571337893693,0.19036141836580914,0.5442468786893089
2019-07-21T00:09:00+08:00,0,0,82,0,0.7613232775801503,0.5981526682430902,0.3789605960427881,0.43684249919579077
2019-07-21T00:10:00+08:00,0,14,90,0,0.5083960265738892,0.5187895611790405,0.45210266015699935,0.1767623731428545
2019-07-21T00:11:00+08:00,50,28,63,62,0.5244918478489329,0.7819838982112864,0.7637473255845911,0.38750261199191227
2019-07-21T00:12:00+08:00,0,14,85,31,0.5546553193771696,0.8225512531366511,0.27762477517985634,0.23441597627637456
2019-07-21T00:13:00+08:00,0,56,84,30,0.3900403762988426,0.3433421892732945,0.35459893724696323,0.3291466370294987
2019-07-21T00:14:00+08:00,0,55,65,30,0.6860359748137126,0.21899558798929802,0.7002406878547897,0.3024401003940647
2019-07-21T00:15:00+08:00,50,0,84,30,0.6384019193606248,0.6408978054985579,0.5164182933981235,0.11079077217184637
2019-07-21T00:16:00+08:00,49,40,69,28,0.0,0.5807121630281269,0.34864221457798483,0.2628725394065736
2019-07-21T00:17:00+08:00,0,13,64,0,0.5051223002128632,0.17813813693453093,0.18270494022785633,0.3244914864004548
2019-07-21T00:18:00+08:00,0,49,79,0,0.3456030256878907,0.5367558372084938,0.6723578176802738,0.14656379003188832
2019-07-21T00:19:00+08:00,0,36,82,70,0.574885971784609,0.2252972292883752,0.48462145513239646,0.05697325227666993
2019-07-21T00:20:00+08:00,43,56,75,0,0.5129092991360871,0.284719056915547,0.3744070988964346,1.0
